{
  "compact": true,
  "controlFlowFlattening": false,
  "controlFlowFlatteningThreshold": 0.75,
  "deadCodeInjection": false,
  "deadCodeInjectionThreshold": 0.4,
  "debugProtection": false,
  "debugProtectionInterval": false,
  "disableConsoleOutput": false,
  "domainLock": [],
  "forceTransformStrings": [],
  "identifierNamesGenerator": "hexadecimal",
  "identifiersDictionary": [],
  "identifiersPrefix": "",
  "ignoreRequireImports": false,
  "inputFileName": "index.js",
  "log": false,
  "numbersToExpressions": false,
  "optionsPreset": "default",
  "renameGlobals": false,
  "renameProperties": false,
  "reservedNames": [],
  "reservedStrings": [],
  "rotateStringArray": true,
  "seed": 0,
  "selfDefending": false,
  "shuffleStringArray": true,
  "simplify": true,
  "sourceMap": false,
  "sourceMapBaseUrl": "",
  "sourceMapFileName": "",
  "sourceMapMode": "separate",
  "splitStrings": false,
  "splitStringsChunkLength": 10,
  "stringArray": true,
  "stringArrayCallsIndexType": [
    "hexadecimal-number"
  ],
  "stringArrayEncoding": [],
  "stringArrayIndexShift": true,
  "stringArrayWrappersCount": 1,
  "stringArrayWrappersChainedCalls": true,
  "stringArrayWrappersParametersMaxCount": 2,
  "stringArrayWrappersType": "variable",
  "stringArrayThreshold": 0.75,
  "target": "browser",
  "transformObjectKeys": false,
  "unicodeEscapeSequence": false
}
